{
    "KPlugin": {
        "BugReportUrl": "https://bugs.kde.org/enter_bug.cgi?product=systemsettings&component=kcm_sddm",
        "Description": "Configure Login Manager",
        "Description[ar]": "اضبط مدير الولوج",
        "Description[ast]": "Configura'l xestor d'anicios de sesión",
        "Description[az]": "Giriş menecerini tənzimləyin",
        "Description[bg]": "Конфигуриране на опциите за влизане в системата",
        "Description[ca@valencia]": "Configura el gestor d'accés",
        "Description[ca]": "Configura el gestor d'accés",
        "Description[cs]": "Nastavit správce přihlášení...",
        "Description[de]": "Anmeldungsverwaltung einrichten",
        "Description[en_GB]": "Configure Login Manager",
        "Description[eo]": "Agordi ensalutan administrilon",
        "Description[es]": "Configurar el gestor de inicio de sesión",
        "Description[eu]": "Konfiguratu saio-hasteko kudeatzailea",
        "Description[fi]": "Kirjautumisikkunan asetukset",
        "Description[fr]": "Configurer le gestionnaire de connexion",
        "Description[gl]": "Configurar o xestor de identificación.",
        "Description[he]": "הגדרת מנהל כניסה",
        "Description[hu]": "A bejelentkezéskezelő beállításai",
        "Description[ia]": "Configura le gerente de accesso",
        "Description[id]": "Konfigurasikan Pengelola Login",
        "Description[it]": "Configura il gestore degli accessi",
        "Description[ka]": "შესვლის მმართველის მორგება",
        "Description[ko]": "로그인 관리자 설정",
        "Description[lt]": "Konfigūruoti prisijungimo tvarkytuvę",
        "Description[nl]": "Aanmeldbeheerder configureren",
        "Description[nn]": "Set opp innloggingshandsamar",
        "Description[pl]": "Ustawienia zarządzania logowaniem",
        "Description[pt]": "Configurar o Gestor de Autenticação",
        "Description[pt_BR]": "Configurar o gerenciador de login",
        "Description[ro]": "Configurează gestionarul de autentificare",
        "Description[ru]": "Настройка диспетчера входа в систему",
        "Description[sk]": "Nastaviť správcu prihlásenia",
        "Description[sl]": "Nastavi upravljalnika prijav",
        "Description[sv]": "Anpassa inloggningshanterare",
        "Description[ta]": "நுழைவுத் திரையை அமைக்கும்",
        "Description[tr]": "Oturum Açma Yöneticisini Yapılandır",
        "Description[uk]": "Налаштування керування входом до системи",
        "Description[x-test]": "xxConfigure Login Managerxx",
        "Description[zh_CN]": "配置登录管理器",
        "Description[zh_TW]": "設定登入管理器",
        "Icon": "preferences-system-login",
        "Name": "Login Screen (SDDM)",
        "Name[ar]": "شاشة ولوج (SDDM)",
        "Name[ast]": "Pantalla d'aniciu de sesión (SDDM)",
        "Name[az]": "Giriş EKranı (SDDM)",
        "Name[bg]": "Екран за влизане (SDDM)",
        "Name[bs]": "Prijavni ekran (SDDM)",
        "Name[ca@valencia]": "Pantalla d'inici de sessió (SDDM)",
        "Name[ca]": "Pantalla d'inici de sessió (SDDM)",
        "Name[cs]": "Přihlašovací obrazovka (SDDM)",
        "Name[da]": "Login-skærm (SDDM)",
        "Name[de]": "Anmeldebildschirm (SDDM)",
        "Name[el]": "Οθόνη εισόδου (SDDM)",
        "Name[en_GB]": "Login Screen (SDDM)",
        "Name[eo]": "Ensaluta ekrano (SDDM)",
        "Name[es]": "Pantalla de inicio de sesión (SDDM)",
        "Name[et]": "Sisselogimisekraan (SDDM)",
        "Name[eu]": "Saio-hasteko pantaila (SDDM)",
        "Name[fi]": "Kirjautumisruutu (SDDM)",
        "Name[fr]": "Écran de connexion (SDDM)",
        "Name[gl]": "Pantalla de identificación (SDDM)",
        "Name[he]": "מסך כניסה (SDDM)",
        "Name[hu]": "Bejelentkező képernyő (SDDM)",
        "Name[ia]": "Schermo de accesso(SDDM)",
        "Name[id]": "Layar Login (SDDM)",
        "Name[it]": "Schermata di accesso (SDDM)",
        "Name[ja]": "ログイン画面 (SDDM)",
        "Name[ka]": "შესვლის ეკრანი (SDDM)",
        "Name[ko]": "로그인 화면(SDDM)",
        "Name[lt]": "Prisijungimo langas (SDDM)",
        "Name[nb]": "Loginn-skjerm (SDDM)",
        "Name[nl]": "Aanmeldscherm (SDDM)",
        "Name[nn]": "Innloggingsbilete (SDDM)",
        "Name[pa]": "ਲਾਗਇਨ ਸਕਰੀਨ (SDDM)",
        "Name[pl]": "Ekran logowania (SDDM)",
        "Name[pt]": "Ecrã de Autenticação (SDDM)",
        "Name[pt_BR]": "Tela de autenticação (SDDM)",
        "Name[ro]": "Ecran de autentificare (SDDM)",
        "Name[ru]": "Вход в систему (SDDM)",
        "Name[sk]": "Prihlasovacia obrazovka (SDDM)",
        "Name[sl]": "Prijavni zaslon (SDDM)",
        "Name[sr@ijekavian]": "Пријавни екран (СДДМ)",
        "Name[sr@ijekavianlatin]": "Prijavni ekran (SDDM)",
        "Name[sr@latin]": "Prijavni ekran (SDDM)",
        "Name[sr]": "Пријавни екран (СДДМ)",
        "Name[sv]": "Inloggningsfönster (SDDM)",
        "Name[ta]": "நுழைவுத் திரை (SDDM)",
        "Name[tr]": "Oturum Açma Ekranı (SDDM)",
        "Name[uk]": "Вікно входу (SDDM)",
        "Name[x-test]": "xxLogin Screen (SDDM)xx",
        "Name[zh_CN]": "登录屏幕 (SDDM)",
        "Name[zh_TW]": "登入畫面（SDDM）"
    },
    "X-KDE-Keywords": "sddm,display manager,themes,login theme,login screen,login skin,login visual,login look,logout,enter,authentication screen,sync settings,synchronize settings,session,default session,default user,user uid,login as,authenticate as,command to shutdown,command to restart",
    "X-KDE-Keywords[az]": "sddm,display manager,themes,login theme,login screen,login skin,login visual,login look,logout,enter,authentication screen,sync settings,synchronize settings,session,default session,default user,user uid,login as,authenticate as,command to shutdown,command to restart,ekran,mövzular,giriş mövzusu,giriş ekranı,giriş örtüyü,giriş görünüşü,giriş kilidi,çıxış,kimlikdoğrulaması ekranı,eyniləşdirmə ayarları,oturumlar,ilkin oturum,ilkin istifadəçi,istifadəçi kimliyi,belə daxil ol,bu kimlikldaxil ol,söndürmə əmri,yenidən başlatma əmri",
    "X-KDE-Keywords[ca]": "sddm,gestor de sessions,temes,tema d'inici de sessió,pantalla d'inici de sessió,pell d'inici de sessió,connexió,aspecte d'inici de sessió,sortida,entrada,pantalla d'autenticació,configuració de sincronització,sincronització,sessió,sessió predeterminada,usuari predeterminat,uid d'usuari,connecta com a,autentica com a,ordre per aturar,ordre per reiniciar",
    "X-KDE-Keywords[el]": "sddm,διαχειριστής οθόνης,θέματα,θέμα οθόνης σύνδεσης,οθόνη σύνδεσης,login skin,login visual,login look,αποσύνδεση,enter,οθόνη ταυτοποίησης,ρυθμίσεις συγχρονισμού,synchronize settings,συνεδρία,προκαθορισμένη συνεδρία,προκαθορισμένος χρήστης,user uid,σύνδεση ως,ταυτοποίηση ως,εντολή τερματισμού,εντολή επανεκκίνησης",
    "X-KDE-Keywords[en_GB]": "sddm,display manager,themes,login theme,login screen,login skin,login visual,login look,logout,enter,authentication screen,sync settings,synchronise settings,session,default session,default user,user uid,login as,authenticate as,command to shutdown,command to restart",
    "X-KDE-Keywords[es]": "sddm,gestor de pantalla,temas,tema de inicio de sesión,pantalla de inicio de sesión,tema de inicio de sesión,inicio de sesión visual,inicio de sesión,fin de sesión,entrar,pantalla de autenticación,sincronizar preferencias,sesión,sesión predeterminada,usuario predeterminado,uid de usuario,iniciar sesión como,autenticarse como,orden para apagar,orden para reiniciar",
    "X-KDE-Keywords[eu]": "sddm,saio-kudeatzailea,gaiak,saio-hasteko gaia,saio-hasteko pantaila,saio-hasteko azala,ikusizko saio-hastea,saio-hasteko itxura,saio-itxi,sartu,autentifikatzeko pantaila,sink. ezarpenak,sinkronizatzeko ezarpenak,saioa,saio lehenetsia,erabiltzaile lehenetsia,erabiltzaile uid,saio-hasi hau gisa,autentifikatu hau gisa,itzaltzeko komandoa,berrasteko komandoa",
    "X-KDE-Keywords[fi]": "sddm,näytönhallinta,kirjautumishallinta,teemat,kirjautumisteema,kirjautumisnäyttö,kirjautumisen ulkoasu,tunnistautumisnäyttö,synkronointiasetukset,synkronoi asetukset,istunto,oletusistunto,oletuskäyttäjä,käyttäjätunniste,kirjaudu nimellä,tunnistaudu nimellä,sammutus,uudelleenkäynnistys,sammutuskomento,uudelleenkäynnistyskomento",
    "X-KDE-Keywords[fr]": "sddm, gestionnaire d'affichage, thèmes, thème de connexion, écran de connexion, habillage de connexion, visuel de connexion, apparence de connexion, déconnexion, entrée, écran d'authentification, configuration de synchronisation, session, session par défaut, utilisateur par défaut, uid utilisateur, se connecter comme, s'authentifier comme, commande pour extinction, commande pour redémarrage",
    "X-KDE-Keywords[hu]": "sddm,bejelentkezéskezelő,témák,bejelentkezési téma,bejelentkező képernyő,nejelentkezési felület,bejelenetkezési kép, bejelentkezési megjelenés,kijelentkezés,enter,hitelesítő képernyő,szinkronizálási beállítások,szinkronizálás, munkamenet,alapértelmezett munkamenet,alapértelmezett felhasználó,felhasználóazonosító,bejelentkezés mint, hitelesítés mint,kikapcsoló parancs,újraindító parancs",
    "X-KDE-Keywords[ia]": "sddm,gerente de monstrator,themas,thema de accesso,schermo de accesso,apparentia de accesso,accesso visual,semblantia de accesso,clausura accesso,inserta,schermo de authentication,preferentias de sync,preferentias de synchronisar,session,session predefinite,usator predefinite,uid de usator,accesso como,authentica como,commando a stoppar,commando a initiar",
    "X-KDE-Keywords[it]": "sddm,gestore dello schermo,temi,tema di accesso,schermata di accesso,tema di accesso,visuale di accesso,aspetto di accesso,disconnessione,invio,schermata di autenticazione,impostazioni di sincronizzazione,sessione,sessione predefinita,utente predefinito,uid utente,accedi come,autentica come, comando per spegnere,comando per riavviare",
    "X-KDE-Keywords[ko]": "sddm,display manager,themes,login theme,login screen,login skin,login visual,login look,logout,enter,authentication screen,sync settings,synchronize settings,session,default session,default user,user uid,login as,authenticate as,command to shutdown,command to restart,디스플레이 관리자,테마,로그인 테마,로그인 화면,로그인 스킨,로그아웃,입력,인증 화면,설정 동기화,세션,기본 세션,기본 사용자,인증,컴퓨터 끄기,다시 시작",
    "X-KDE-Keywords[nl]": "sddm,schermbeheerder,thema's,aanmeldthema,aanmeldscherm,aanmeldskin,visueel aanmelden,uiterlijk van aanmelden,afmelden,invoeren,authenticatiescherm,synchronisatie instellingen,sessie,standaard sessie,standaard gebruiker,gebruikers-uid,aanmelden als,authenticeren als,commando om af te sluiten,commando om opnieuw te starten",
    "X-KDE-Keywords[pl]": "sddm,zarządzanie wyświetlaniem,wyglądy,wygląd logowania,ekran logowania,skórka logowania,widok logowania,wygląd logowania,wylogowanie,wejście,ekran uwierzytelnienia,synchronizacja ustawień,synchronizacja ustawień,sesja,domyślna sesja,domyślny użytkownik,uid użytkownika,zaloguj jako,uwierzytelnij jako,polecenie do zamknięcia,polecenie do ponownego uruchomienia",
    "X-KDE-Keywords[pt]": "sddm,gestor de autenticação,temas,tema de autenticação,ecrã de autenticação,visual da autenticação,aparência da autenticação,encerrar,entrar,sincronização da configuração,sessão,sessão predefinida,utilizador predefinido,UID do utilizador,autenticar como,entrar como,comando de encerramento,comando de reinício",
    "X-KDE-Keywords[pt_BR]": "sddm,gerenciar de exibição,temas,tema de login,tela de login,pele de login,visual de login,aparência de login,saída,logout,entrar,tela de autenticação,configurações de sincronização,sincronizar,sessão,sessão padrão,usuário padrão,UID do usuário,logar como,autenticar como,comando para desligar,comando para reiniciar",
    "X-KDE-Keywords[ru]": "sddm,display manager,themes,login theme,login screen,login skin,login visual,login look,logout,enter,authentication screen,sync settings,synchronize settings,session,default session,default user,user uid,login as,authenticate as,command to shutdown,command to restart,экранный менеджер,оформления,экран входа,оформление экрана входа,выход,логин,синхронизация параметров,пользователь по умолчанию,сеанс по умолчанию,выход под именем,аутентификация",
    "X-KDE-Keywords[sk]": "sddm,správca displeja,témy,téma prihlásenia,prihlasovacia obrazovka,prihlasovací skin,vizuálne prihlásenie, vzhľad prihlásenia,odhlásenie,vstúpiť,obrazovka overovania,synchronizácia nastavení,synchronizovať nastavenia,sedenie,predvolené sedenie,predvolený používateľ,uid používateľa,prihlásiť ako,overiť ako,príkaz na vypnutie,príkaz na reštart",
    "X-KDE-Keywords[sl]": "sddm,krmilnik zaslona,teme,prijavna tema,prijavni zaslon,prijavna preobleka,oblika prijave,videz prijave,odjava,vnos,poverilni zaslon,nastavitve sinhronizacije,sinhroniziraj nastavitve,seja,privzeta seja,privzeti uporabnik,uid uporabnika,prijava kot,se prijavi kot,ukaz za izklop,ukaz za ponovni zagon",
    "X-KDE-Keywords[sv]": "sddm,skärmhanterare,teman,inloggningstema,inloggningsskärm,inloggningsskal,visuell inloggning,inloggningsutseende,utloggning,komma in,behörighetskontrollskärm,synkronisera inställningar,session,förvald session,förvald användare,användarens uid,logga in som,kontrollera behörighet som,kommando för avstängning,kommando för omstart",
    "X-KDE-Keywords[uk]": "sddm,display manager,themes,login theme,login screen,login skin,login visual,login look,logout,enter,authentication screen,sync settings,synchronize settings,session,default session,default user,user uid,login as,authenticate as,command to shutdown,command to restart,есдедеем,керування дисплеєм,теми,тема входу,екран входу,оболонка входу,шкірка входу,візуальний вхід,вигляд входу,вихід,вхід,вікно розпізнавання,вікно автентифікації,параметри синхронізації,сеанс,типовий сеанс,типовий користувач,ідентифікатор користувача,вхід від імені,розпізнавання від імені,автентифікація від імені,команда для вимикання,команда для перезапуску",
    "X-KDE-Keywords[x-test]": "xxsddmxx,xxdisplay managerxx,xxthemesxx,xxlogin themexx,xxlogin screenxx,xxlogin skinxx,xxlogin visualxx,xxlogin lookxx,xxlogoutxx,xxenterxx,xxauthentication screenxx,xxsync settingsxx,xxsynchronize settingsxx,xxsessionxx,xxdefault sessionxx,xxdefault userxx,xxuser uidxx,xxlogin asxx,xxauthenticate asxx,xxcommand to shutdownxx,xxcommand to restartxx",
    "X-KDE-Keywords[zh_CN]": "sddm,display manager,themes,login theme,login screen,login skin,login visual,login look,logout,enter,authentication screen,sync settings,synchronize settings,session,default session,default user,user uid,login as,authenticate as,command to shutdown,command to restart,显示管理器,主题,登录,登录主题,登录屏幕,登录画面,登录界面,登录皮肤,登录视觉效果,登录外观,注销,进入,身份验证屏幕,同步设置,会话,会话类型,默认会话,默认用户,用户 uid,登录身份,认证身份,关机命令,重启命令",
    "X-KDE-System-Settings-Parent-Category": "themes",
    "X-KDE-Weight": 110
}
